<svg width="33" height="32" viewBox="0 0 33 32" fill="none" xmlns="http://www.w3.org/2000/svg">
<path d="M16.0804 2.66666L20.2211 11.0133L29.4807 12.36L22.7806 18.8533L24.3618 28.0267L16.0804 23.6933L7.79898 28.0267L9.38022 18.8533L2.68005 12.36L11.9397 11.0133L16.0804 2.66666Z" stroke="#D68044" stroke-width="2" stroke-linecap="round" stroke-linejoin="round"/>
</svg>
