<svg width="32" height="32" viewBox="0 0 32 32" fill="none" xmlns="http://www.w3.org/2000/svg">
<path d="M16 31C24.2843 31 31 24.2843 31 16C31 7.71573 24.2843 1 16 1C7.71573 1 1 7.71573 1 16C1 24.2843 7.71573 31 16 31Z" fill="white" stroke="#63A1FF" stroke-width="2" stroke-linecap="round" stroke-linejoin="round"/>
<path d="M24 24V22C24 20.9391 23.5786 19.9217 22.8284 19.1716C22.0783 18.4214 21.0609 18 20 18H12C10.9391 18 9.92172 18.4214 9.17157 19.1716C8.42143 19.9217 8 20.9391 8 22V24" stroke="#63A1FF" stroke-width="2" stroke-linecap="round" stroke-linejoin="round"/>
<path d="M16 14C18.2091 14 20 12.2091 20 10C20 7.79086 18.2091 6 16 6C13.7909 6 12 7.79086 12 10C12 12.2091 13.7909 14 16 14Z" stroke="#63A1FF" stroke-width="2" stroke-linecap="round" stroke-linejoin="round"/>
</svg>
