{
    "data": {
        "id": 0,
        "appName": "UDS",
        "statistic": {
            "totalText": 87,
            "totalFile": 54,
            "totalFileSize": 50000,
            "request24h": 1232,
            "requestMonthFile": 45,
            "requestMonthText": 63
        },
        "users": 32,
        "favorits": {
            "text": true,
            "file": false
        },
        "limits": {
            "maxTexts": 500,
            "maxSumSizeFiles": 102400 
        }
        
    }
}