{
    "success": true,
    "data": [
        {
            "appId": "62ef7b04154816a1b4ff6d40",
            "messageKey": "test.message.key",
            "created": 1659861790193,
            "createdby": "default_user",
            "locales": [
                {
                    "languageKey": "ru",
                    "locale": "Привет"
                },
                {
                    "languageKey": "en",
                    "locale": "Hello"
                }
            ],
            "id": "62ef7b1e154816a1b4ff6d41"
        },
        {
            "appId": "62ef7b04154816a1b4ff6d40",
            "messageKey": "test.message.key2",
            "created": 1659861803692,
            "createdby": "default_user",
            "locales": [],
            "id": "62ef7b2b154816a1b4ff6d42"
        },
        {
            "appId": "62ef7b04154816a1b4ff6d40",
            "messageKey": "skype.main.header",
            "created": 1659863864763,
            "createdby": "default_user",
            "locales": [],
            "id": "62ef833818c73c981a12e291"
        }
    ]
}